0, 0.24319834264572088
1, 0.2488723155164446
2, 0.2574870887862375
3, 0.2703317287021696
4, 0.28914235392179904
5, 0.31620677609991354
6, 0.35447647706586194
7, 0.40768248639129323
8, 0.4804524355244382
9, 0.5784280835905219
10, 0.7083858568369183
11, 0.8783668563131236
12, 1.097826288135968
13, 1.377813921700439
14, 1.7311955588352266
15, 2.172919664179395
16, 2.720323144317564
17, 3.3934563286763746
18, 4.215390034942062
19, 5.212447021505954
20, 6.414275880850673
21, 7.853660085923984
22, 9.565937607641638
23, 11.587912641993206
24, 13.956183291034048
25, 16.704885192057425
26, 19.86294403811722
27, 23.4510301891992
28, 27.478529671362406
29, 31.940986840591798
30, 36.818554089331265
31, 42.07586624701784
32, 47.663401191681096
33, 53.51996113446681
34, 59.575675941110404
35, 65.75501215185584
36, 71.97954418421716
37, 78.1704718971158
38, 84.25091789734252
39, 90.1479590251415
40, 95.79427706541262
41, 101.12933485284215
42, 106.10007231001644
43, 110.66120255334988
44, 114.77518794454875
45, 118.41098653806976
46, 121.52123286807269
47, 124.07953981122311
48, 126.16149156920245
49, 127.71690446336167
50, 128.74884695828624
51, 129.25531290475718
52, 129.2418774938977
53, 128.72316993830117
54, 127.71809839363193
55, 126.24828501023555
56, 124.33776733373048
57, 122.01275904300806
58, 119.30133208688355
59, 116.23300933652321
60, 112.8382860595801
61, 109.14813902548562
62, 105.19361116017885
63, 101.00555771796564
64, 96.61460393428058
65, 92.05130791132923
66, 87.34646763979836
67, 82.53147561387216
68, 77.63861611437554
69, 72.70121598248615
70, 67.75359047141129
71, 62.83076155975608
72, 57.96795950370884
73, 53.19994537034187
74, 48.56021138248502
75, 44.08012699406583
76, 39.78810205372266
77, 35.708834755259225
78, 31.862702160020483
79, 28.265336202157084
80, 24.927410024800633
81, 21.854640342498662
82, 19.047993429128237
83, 16.5040671688047
84, 14.215610726267734
85, 12.17213745641464
86, 10.36058564299747
87, 8.765984896915151
88, 7.372092500592113
89, 6.161972401237275
90, 5.118498682931524
91, 4.224774106440553
92, 3.464461892336737
93, 2.8220348508698674
94, 2.2829500501873152
95, 1.8337595371319195
96, 1.4621684381609412
97, 1.1570514310561213
98, 0.9084374803418778
99, 0.7074712323646053
100, 0.546357865261074
101, 0.41829669483139487
102, 0.31740757297551525
103, 0.23865312830990185
104, 0.17775917909313121
105, 0.13113515099497117
106, 0.09579599488105378
107, 0.06928686081257711
108, 0.0496115923651028
109, 0.035165924191130064
110, 0.02467607591658038
111, 0.017143231570012494
112, 0.011794180691544802
113, 0.008038185908407413
114, 0.005429944952827736
115, 0.0036383446284439275
116, 0.0024205688367462085
117, 0.001601027170947491
118, 0.0010545153788887483
119, 0.0006930012288157031
120, 0.00045544337433652346
